{
  "radio": [
    {
      "name": "Radio Deejay",
      "url": "http://goo.gl/f5zUJD",
      "stream": "http://radiodeejay-lh.akamaihd.net/i/RadioDeejay_Live_1@189857/master.m3u8",
      "frequency": "90300000"
    },
    {
      "name": "Radio 105",
      "url": "http://goo.gl/uQ67oC",
      "stream": "http://bit.ly/2uMqxr3",
      "frequency":"96100000"
    },

    {
      "name": "Virgin Radio",
      "url": "http://goo.gl/TjR9gk",
      "stream": "http://bit.ly/2wl1cTn",
      "frequency":"98700000"
    },
    {
      "name": "RDS",
      "url": "http://goo.gl/NHgbZQ",
      "stream": "http://bit.ly/2uVgMXN",
      "frequency":"1030000000"
    },
    {
      "name": "RTL 102.5",
      "url": "http://goo.gl/axwtai",
      "stream": "http://bit.ly/2hmVFce",
      "frequency":"91450000"
    },
    {
      "name": "Radio Italia",
      "url": "http://goo.gl/6qatB3",
      "stream": "http://bit.ly/2f7NP5v",
      "frequency":"104200000"
    },
    {
      "name": "Radio Novelli",
      "url": "http://goo.gl/ScHB6r",
      "stream": "http://bit.ly/2uMqrjb",
      "frequency":""
    },
    {
      "name": "M20",
      "url": "http://goo.gl/5b7fnG",
      "stream": "http://bit.ly/2f7pdJX",
      "frequency": "97000000"
    },
    {
      "name": "Radio Zeta L’Italiana",
      "url":"http://goo.gl/ybMnHC",
      "stream":"http://bit.ly/2gGAdvI",
      "frequency":"88900000"
    },
    {
     "name":"Radio Kiss Kiss",
      "url":"http://goo.gl/MZmhpR",
      "stream":"http://bit.ly/2lmkRBN",
      "frequency":"97200000"
    },

    {
      "name":"Rai Radio 1",
      "url":"http://goo.gl/pzG71h",
      "stream":"http://bit.ly/2qeNWfe",
      "frequency":"87600000"
    },
    {
      "name":"Radio Subasio",
      "url":"http://goo.gl/VgRucX",
      "stream":"http://bit.ly/2yOQ3wt",
      "frequency":"94000000"
    },
    {
      "name": "Radio Monte Carlo",
      "url": "http://goo.gl/Qe9SAF",
      "stream": "http://bit.ly/2uVmuJq",
      "frequency":"106100000"
    }

  ]
}